{
    "KPlugin": {
        "Authors": [
            {
                "Email": "damu@iki.fi",
                "Name": "Petri Damstén",
                "Name[ar]": "Petri Damstén",
                "Name[az]": "Petri Damstén",
                "Name[bg]": "Petri Damstén",
                "Name[ca@valencia]": "Petri Damstén",
                "Name[ca]": "Petri Damstén",
                "Name[cs]": "Petri Damstén",
                "Name[da]": "Petri Damstén",
                "Name[de]": "Petri Damstén",
                "Name[en_GB]": "Petri Damstén",
                "Name[es]": "Petri Damstén",
                "Name[eu]": "Petri Damstén",
                "Name[fi]": "Petri Damstén",
                "Name[fr]": "Petri Damstén",
                "Name[hu]": "Petri Damstén",
                "Name[ia]": "Petri Damstén",
                "Name[id]": "Petri Damstén",
                "Name[is]": "Petri Damstén",
                "Name[it]": "Petri Damstén",
                "Name[ja]": "Petri Damstén",
                "Name[ka]": "პეტრი დამშტენი",
                "Name[ko]": "Petri Damstén",
                "Name[lt]": "Petri Damstén",
                "Name[nl]": "Petri Damstén",
                "Name[nn]": "Petri Damstén",
                "Name[pl]": "Petri Damstén",
                "Name[pt]": "Petri Damstén",
                "Name[pt_BR]": "Petri Damstén",
                "Name[ro]": "Petri Damstén",
                "Name[ru]": "Petri Damstén",
                "Name[sk]": "Petri Damstén",
                "Name[sl]": "Petri Damstén",
                "Name[sv]": "Petri Damstén",
                "Name[ta]": "பெட்ரி டாம்ஸ்டென்",
                "Name[tr]": "Petri Damstén",
                "Name[uk]": "Petri Damstén",
                "Name[vi]": "Petri Damstén",
                "Name[x-test]": "xxPetri Damsténxx",
                "Name[zh_CN]": "Petri Damstén"
            }
        ],
        "Category": "Windows and Tasks",
        "Description": "Temporarily reveals the Desktop by moving open windows into screen corners",
        "Description[ar]": "يلقي نظرة على سطح المكتب عن طريق تحريك النوافذ المفتوحة إلى زوايا الشاشة",
        "Description[az]": "Açıq pəncərələrin ekran künclərinəd yeri dəyişdirilərkən İş masası müvəqqəti göstərilsin.",
        "Description[bg]": "Временно разкрива работния плот, като премества отворените прозорци в ъглите на екрана",
        "Description[ca@valencia]": "Mostra temporalment l'escriptori en moure les finestres obertes cap a les cantonades de la pantalla",
        "Description[ca]": "Mostra temporalment l'escriptori en moure les finestres obertes cap a les cantonades de la pantalla",
        "Description[en_GB]": "Temporarily reveals the Desktop by moving open windows into screen corners",
        "Description[es]": "Revela temporalmente el escritorio moviendo las ventanas abiertas a las esquinas de la pantalla",
        "Description[eu]": "Aldi baterako, mahaigaina agertzen du irekitako leihoak pantailako izkinetara mugituz",
        "Description[fi]": "Paljastaa työpöydän väliaikaisesti siirtämällä ikkunoita näytön kulmiin",
        "Description[fr]": "Affiche temporairement le bureau par un déplacement des fenêtres ouvertes vers les coins de l'écran",
        "Description[it]": "Rivela temporaneamente il desktop spostando le finestre aperte negli angoli dello schermo",
        "Description[ja]": "開かれたウィンドウをスクリーンの角に移動させて一時的にデスクトップを表示",
        "Description[ka]": "დროებით გაჩვენებთ სამუშაო მაგიდას ღია ფანჯრების ეკრანის კუთხეებში გადატანით",
        "Description[nl]": "Tijdelijk het bureaublad onthullen door open vensters naar schermhoeken te verplaatsen",
        "Description[nn]": "Vis mellombels skrivebordet ved å flytta opne vindauge til skjermkantar",
        "Description[pl]": "Tymczasowo odkrywa pulpit, przesuwając otwarte na nim okna w narożniki ekranu",
        "Description[pt]": "Revela temporariamente o ecrã, movendo as janelas abertas para os cantos do mesmo",
        "Description[ru]": "Быстрый просмотр рабочего стола перемещением открытых окон в углы экрана",
        "Description[sl]": "Začasno razkrije namizje, tako da pomakne odprta okna v kote zaslona",
        "Description[sv]": "Visar tillfälligt skrivbordet genom att flytta öppna fönster till skärmhörn",
        "Description[ta]": "திறந்துள்ள சாளரங்களை திரையின் ஓரங்களுக்கு தற்காலிகமாக நகர்த்தி பணிமேடையைக் காட்டும்",
        "Description[tr]": "Açık pencereleri ekran köşelerine taşıyarak geçici olarak Masaüstü'nü ortaya çıkarır",
        "Description[uk]": "Тимчасово відкриває стільницю, пересуваючи відкриті вікна у кути екрана",
        "Description[vi]": "Tạm thời hiện bàn làm việc bằng cách di chuyển các cửa sổ đang mở sang các góc màn hình",
        "Description[x-test]": "xxTemporarily reveals the Desktop by moving open windows into screen cornersxx",
        "Description[zh_CN]": "将打开的窗口移动到屏幕角落，暂时显示桌面",
        "EnabledByDefault": true,
        "FormFactors": [
            "desktop"
        ],
        "Icon": "user-desktop",
        "Id": "org.kde.plasma.showdesktop",
        "License": "GPL-2.0+",
        "Name": "Peek at Desktop",
        "Name[ar]": "نظرة على سطح المكتب",
        "Name[az]": "İş masasına nəzər salın",
        "Name[bg]": "Поглед върху работния плот",
        "Name[ca@valencia]": "Ullada a l'escriptori",
        "Name[ca]": "Ullada a l'escriptori",
        "Name[en_GB]": "Peek at Desktop",
        "Name[es]": "Dar un vistazo al escritorio",
        "Name[eu]": "Begirada bat mahaigainari",
        "Name[fi]": "Kurkista työpöydälle",
        "Name[fr]": "Coup d’œil sur le bureau",
        "Name[is]": "Kíkja á skjáborðið ",
        "Name[it]": "Dai un'occhiata al desktop",
        "Name[ja]": "デスクトップを覗く",
        "Name[ka]": "სამუშაო მაგიდაზე გაჭვრეტა",
        "Name[nl]": "Naar het bureaublad gluren",
        "Name[nn]": "Kikk på skrivebordet",
        "Name[pl]": "Podejrzyj pulpit",
        "Name[pt]": "Espreitar o Ecrã",
        "Name[ru]": "Быстрый просмотр рабочего стола",
        "Name[sl]": "Pokukaj na namizje",
        "Name[sv]": "Kika på skrivbord",
        "Name[ta]": "பணிமேடையைக் காட்டு",
        "Name[tr]": "Masaüstüne Bak",
        "Name[uk]": "Показати стільницю",
        "Name[vi]": "Ngó qua bàn làm việc",
        "Name[x-test]": "xxPeek at Desktopxx",
        "Name[zh_CN]": "暂时显示桌面",
        "ServiceTypes": [
            "Plasma/Applet"
        ],
        "Version": "1.0",
        "Website": "https://kde.org/plasma-desktop"
    },
    "X-Plasma-API": "declarativeappletscript",
    "X-Plasma-MainScript": "ui/main.qml",
    "X-Plasma-Provides": [
        "org.kde.plasma.windowmanagement"
    ]
}
