{
    "KPlugin": {
        "Authors": [
            {
                "Email": "plasma-devel@kde.org",
                "Name": "The Plasma Team",
                "Name[ar]": "فريق بلازما",
                "Name[az]": "Plasma komandası",
                "Name[bg]": "Екипът на Plasma",
                "Name[ca@valencia]": "L'equip de Plasma",
                "Name[ca]": "L'equip del Plasma",
                "Name[cs]": "Team Plasma",
                "Name[da]": "Plasma-udviklingsholdet",
                "Name[de]": "Das Plasma-Team",
                "Name[en_GB]": "The Plasma Team",
                "Name[es]": "El equipo de Plasma",
                "Name[eu]": "Plasmaren taldea",
                "Name[fi]": "Plasma-työryhmä",
                "Name[fr]": "L'équipe de Plasma",
                "Name[hu]": "A Plasma fejlesztői",
                "Name[ia]": "Le equipa de Plasma",
                "Name[id]": "Tim Plasma",
                "Name[is]": "Plasma-þróunarhópurinn",
                "Name[it]": "La squadra di Plasma",
                "Name[ja]": "Plasma チーム",
                "Name[ka]": "Plasma-ის გუნდი",
                "Name[ko]": "Plasma 팀",
                "Name[lt]": "Plasma komanda",
                "Name[nl]": "Het team van Plasma",
                "Name[nn]": "Utviklingslaget for Plasma",
                "Name[pa]": "ਪਲਾਜ਼ਮਾ ਟੀਮ",
                "Name[pl]": "Zespół Plazmy",
                "Name[pt]": "A Equipa do Plasma",
                "Name[pt_BR]": "A equipe do Plasma",
                "Name[ro]": "Echipa Plasma",
                "Name[ru]": "Команда разработчиков Plasma",
                "Name[sk]": "Tím Plasma",
                "Name[sl]": "Ekipa Plasme",
                "Name[sv]": "Plasma-gruppen",
                "Name[ta]": "பிளாஸ்மா குழு",
                "Name[tr]": "Plasma Takımı",
                "Name[uk]": "Команда розробників Плазми",
                "Name[vi]": "Đội Plasma",
                "Name[x-test]": "xxThe Plasma Teamxx",
                "Name[zh_CN]": "Plasma 开发团队",
                "Name[zh_TW]": "Plasma 團隊"
            }
        ],
        "Category": "Windows and Tasks",
        "Description": "Switch between activities",
        "Description[ar]": "بدل بين الأنشطة",
        "Description[az]": "Otaqlar arası keçid",
        "Description[bg]": "Превключване между дейностите",
        "Description[ca@valencia]": "Canvia entre activitats",
        "Description[ca]": "Commuta entre activitats",
        "Description[cs]": "Přepnout mezi aktivitami",
        "Description[en_GB]": "Switch between activities",
        "Description[es]": "Cambiar entre actividades",
        "Description[eu]": "Jarduera artean trukatzea",
        "Description[fi]": "Vaihda aktiviteetista toiseen",
        "Description[fr]": "Basculer entre les activités",
        "Description[is]": "Skipta um athafnir",
        "Description[it]": "Passa da un'attività all'altra",
        "Description[ja]": "アクティビティを切り替えます",
        "Description[ka]": "აქტივობებს შორის გადართვა",
        "Description[nl]": "Tussen activiteiten schakelen",
        "Description[nn]": "Byt mellom aktivitetar",
        "Description[pl]": "Przełącza między aktywnościami",
        "Description[pt]": "Mudar de actividades",
        "Description[ru]": "Переключение между комнатами",
        "Description[sl]": "Preklopi med opravili",
        "Description[sv]": "Byt mellan aktiviteter",
        "Description[ta]": "செயல்பாடுகளுக்கிடையே தாவ உதவும்",
        "Description[tr]": "Etkinlikler arasında gezin",
        "Description[uk]": "Перемикання між просторами дій",
        "Description[vi]": "Chuyển giữa các Hoạt động",
        "Description[x-test]": "xxSwitch between activitiesxx",
        "Description[zh_CN]": "在不同活动之间切换",
        "EnabledByDefault": true,
        "Icon": "org.kde.plasma.pager",
        "Id": "org.kde.plasma.activitypager",
        "License": "GPL-2.0+",
        "Name": "Activity Pager",
        "Name[ar]": "مبوب الأنشطة",
        "Name[az]": "İş otağı səhifələyicisi",
        "Name[bg]": "Пейджър на дейностите",
        "Name[ca@valencia]": "Paginador d'activitats",
        "Name[ca]": "Paginador d'activitats",
        "Name[cs]": "Prohlížeč aktivit",
        "Name[en_GB]": "Activity Pager",
        "Name[es]": "Paginador de actividades",
        "Name[eu]": "Jardueren orrialdekatzailea",
        "Name[fi]": "Aktiviteettisivutin",
        "Name[fr]": "Gestionnaire d'activités",
        "Name[is]": "Athafnavísir",
        "Name[it]": "Paginatore attività",
        "Name[ja]": "アクティビティページャ",
        "Name[ka]": "აქტივობის პეიჯერი",
        "Name[nl]": "Pager van activiteiten",
        "Name[nn]": "Aktivitets­bytar",
        "Name[pl]": "Przełącznik aktywności",
        "Name[pt]": "Paginador de Actividades",
        "Name[ru]": "Переключение комнат",
        "Name[sl]": "Pager dejavnosti",
        "Name[sv]": "Aktivitetsbytare",
        "Name[ta]": "செயல்பாடு மாற்றி",
        "Name[tr]": "Etkinlik Sayfalayıcı",
        "Name[uk]": "Пейджер просторів дій",
        "Name[vi]": "Tổng quan Hoạt động",
        "Name[x-test]": "xxActivity Pagerxx",
        "Name[zh_CN]": "活动切换器",
        "ServiceTypes": [
            "Plasma/Applet"
        ],
        "Version": "2.0",
        "Website": "https://userbase.kde.org"
    },
    "X-Plasma-API": "declarativeappletscript",
    "X-Plasma-MainScript": "ui/main.qml",
    "X-Plasma-Provides": [
        "org.kde.plasma.virtualdesktops",
        "org.kde.plasma.activities"
    ],
    "X-Plasma-RootPath": "org.kde.plasma.pager"
}
